<html>
<head>
<title>Mds Blogger</title>
</head>

<body background=mds.jpg>
<font face=Lucida Calligraphy size=8 color=#f0570b>
                <b>Mds Blogger<br>
                <font face= Lucida Calligraphy size=6 color=12f989>
                <i>Blog's Of Tutorial And Information<i>
                <font face=Kristen ITC size=4 color=cyan>



</html> 
